first_Name,last_Name,email,birth_Date,street,city,postal_code
John,biden,johnbiden@gmail.com,"19-20-1999",WhiteHouse Street,Newyork,861235
Barrak,obama,barakobama@gmail.com,"23-09-1889",lazy swine Street,Neywork, 667124
Donald,Trump,donaldtrump@gmail.com,"28-07-1999",Hut House Street,North Virginia,625556
Modi,Jee,modi@gmail.com,"07-08-1888",Dungen Street,Gujarat,567912
Samsung,inc,samsunginc@gmail.com,"08-12-1889",Lotus Street,Japan,865681
Nigel,Allison,nigelallison@gmail.com,"07-08-1888",Garey Mountain,Oheo,729812 
Rick,Weaver,rickweaver@gmail.com,"09-04-1888",John Wick Street,Austin,876192
Pablo,Carver,pablocarver@yahoo.com,"07-12-1889", Last Key Street, Phili, 891528
Aaran,Corbett,aarancorbett@outlook.com,"05-01-1889",Rambo Street,sydney,172829
Paul,Mckeown,paulmckeown@outlook.com,"28-07-1999",Bamboo Garden,Boston,826921